/* XPM */

static char *xpm_flag[] =
{
   /* width height ncolors chars_per_pixel */
   "20 20 6 1" ,
   /* colors */
   "  c white" ,
   "# c black" ,
   "X c gray50 m black" ,
   "* c gray70 m black" ,
   ". c gray70 m white" ,
   "- c red    m black" ,
   /* pixels */
   "                    " ,
   "                   X" ,
   "                  XX" ,
   "   *.*.*.*.*.*.*.XXX" ,
   "   .*.*.*--.*.*.*XXX" ,
   "   *.*.----*.*.*.XXX" ,
   "   .*------.*.*.*XXX" ,
   "   *-------*.*.*.XXX" ,
   "   .*------.*.*.*XXX" ,
   "   *.*.----*.*.*.XXX" ,
   "   .*.*.*--.*.*.*XXX" ,
   "   *.*.*.*#*.*.*.XXX" ,
   "   .*.*.*.#.*.*.*XXX" ,
   "   *.*.*####.*.*.XXX" ,
   "   .*.########*.*XXX" ,
   "   *.##########*.XXX" ,
   "   .*.*.*.*.*.*.*XXX" ,
   "   XXXXXXXXXXXXXXXXX" ,
   "  XXXXXXXXXXXXXXXXXX" ,
   " XXXXXXXXXXXXXXXXXXX" ,
} ;
