/* XPM */

static char *xpm_mine_false[] =
{
   /* width height ncolors chars_per_pixel */
   "20 20 5 1" ,
   /* colors */
   "  c white" ,
   "# c black" ,
   "* c black  m white" ,
   ". c gray70 m white" ,
   "- c red    m black" ,
   /* pixels */
   "...................." ,
   ".--......#*......--." ,
   ".---.....*#.....---." ,
   "..---...*#*#...---.." ,
   "...---#*#*#*#*---..." ,
   "....---#*#*#*---...." ,
   "....#---#*#*---*...." ,
   "....*#--- *---*#...." ,
   "...*#*#------*#*#..." ,
   ".#*#*#* ----*#*#*#*." ,
   ".*#*#*#*----#*#*#*#." ,
   "...#*#*------#*#*..." ,
   "....#*---*#---#*...." ,
   "....*---*#*#---#...." ,
   "....---*#*#*#---...." ,
   "...---*#*#*#*#---..." ,
   "..---...#*#*...---.." ,
   ".---.....#*.....---." ,
   ".--......*#......--." ,
   "...................." ,
} ;
