/* XPM */

static char *xpm_relief[] =
{
   /* width height ncolors chars_per_pixel */
   "20 20 4 1" ,
   /* colors */
   "  c white" ,
   "X c gray50 m black" ,
   "* c gray70 m black" ,
   ". c gray70 m white" ,
   /* pixels */
   "                    " ,
   "                   X" ,
   "                  XX" ,
   "   *.*.*.*.*.*.*.XXX" ,
   "   .*.*.*.*.*.*.*XXX" ,
   "   *.*.*.*.*.*.*.XXX" ,
   "   .*.*.*.*.*.*.*XXX" ,
   "   *.*.*.*.*.*.*.XXX" ,
   "   .*.*.*.*.*.*.*XXX" ,
   "   *.*.*.*.*.*.*.XXX" ,
   "   .*.*.*.*.*.*.*XXX" ,
   "   *.*.*.*.*.*.*.XXX" ,
   "   .*.*.*.*.*.*.*XXX" ,
   "   *.*.*.*.*.*.*.XXX" ,
   "   .*.*.*.*.*.*.*XXX" ,
   "   *.*.*.*.*.*.*.XXX" ,
   "   .*.*.*.*.*.*.*XXX" ,
   "   XXXXXXXXXXXXXXXXX" ,
   "  XXXXXXXXXXXXXXXXXX" ,
   " XXXXXXXXXXXXXXXXXXX" ,
} ;
